<?xml version="1.0" encoding="utf-8"?>
<!-- Generator: Adobe Illustrator 27.2.0, SVG Export Plug-In . SVG Version: 6.00 Build 0)  -->
<svg version="1.1" id="Layer_1" xmlns="http://www.w3.org/2000/svg" xmlns:xlink="http://www.w3.org/1999/xlink" x="0px" y="0px"
	 viewBox="0 0 296 97" style="enable-background:new 0 0 296 97;" xml:space="preserve">
<style type="text/css">
	.st0{fill:#0F7068;}
</style>
<path class="st0" d="M5.5,6.3H1.3v-2H5V3.2H1.3V1.3h4.2V0.1H0v7.3h5.5V6.3z M13.7,3.8L13.7,3.8c0-2.1-1.6-3.7-3.9-3.7H7v7.3h2.7
	C12.1,7.5,13.7,5.9,13.7,3.8z M8.3,1.3h1.5c1.5,0,2.5,1.1,2.5,2.5v0c0,1.4-1,2.5-2.5,2.5H8.3V1.3z M16.2,5.7h3.5l0.7,1.8h1.4
	l-3.2-7.4h-1.2l-3.2,7.4h1.3L16.2,5.7z M17.9,1.6l1.3,2.9h-2.5L17.9,1.6z M29.2,7.6c1.9,0,3.2-1.1,3.2-3.3V0.1H31v4.2
	c0,1.4-0.7,2-1.8,2c-1.2,0-1.9-0.7-1.9-2.1V0.1H26v4.2C26,6.5,27.2,7.6,29.2,7.6z M35.4,2.2l4,5.2h1.1V0.1h-1.3v5.1l-3.9-5.1h-1.2
	v7.3h1.3V2.2z M43.7,0.1h-1.3v7.3h1.3V0.1z M49.3,7.5l3-7.4h-1.4l-2.2,5.6l-2.2-5.6h-1.4l3,7.4H49.3z M59.1,6.3h-4.2v-2h3.7V3.2
	h-3.7V1.3H59V0.1h-5.4v7.3h5.5V6.3z M61.9,4.9h1.6l1.8,2.6h1.5l-2-2.8c1-0.3,1.7-1,1.7-2.2v0c0-0.6-0.2-1.2-0.6-1.6
	c-0.5-0.5-1.2-0.7-2.1-0.7h-3.3v7.3h1.3V4.9z M61.9,1.3h1.9c1,0,1.5,0.4,1.5,1.2v0c0,0.8-0.6,1.2-1.5,1.2v0h-1.9V1.3z M70.8,6.4
	c-0.9,0-1.6-0.3-2.3-1l-0.8,0.9l0,0c0.9,0.8,1.9,1.2,3.1,1.2c1.5,0,2.6-0.8,2.6-2.2v0c0-1.2-0.8-1.8-2.3-2.1
	c-1.4-0.3-1.8-0.6-1.8-1.2v0c0-0.5,0.5-0.9,1.2-0.9c0.7,0,1.3,0.3,2,0.8l0.7-1C72.4,0.3,71.6,0,70.5,0C69,0,68,0.9,68,2.2v0
	c0,1.4,0.9,1.8,2.4,2.2c1.4,0.3,1.7,0.6,1.7,1.1v0C72.1,6,71.6,6.4,70.8,6.4z M76.2,0.1H75v7.3h1.3V0.1z M80,7.5h1.3V1.3h2.3V0.1h-6
	v1.2H80V7.5z M87.2,7.5h1.3V4.5l2.9-4.4h-1.5l-2.1,3.2l-2-3.2h-1.5l2.9,4.5V7.5z M99.1,7.6c1.4,0,2.2-0.5,3-1.3l-0.8-0.8
	c-0.6,0.6-1.2,0.9-2.1,0.9c-1.4,0-2.4-1.2-2.4-2.6v0c0-1.4,1-2.6,2.4-2.6c0.8,0,1.5,0.4,2,0.9l0.8-0.9c-0.7-0.7-1.5-1.1-2.9-1.1
	c-2.2,0-3.8,1.7-3.8,3.8v0l0,0C95.3,5.9,96.9,7.6,99.1,7.6z M108.9,6.3h-4.2v-2h3.7V3.2h-3.7V1.3h4.2V0.1h-5.4v7.3h5.5V6.3z
	 M111.7,2.2l4,5.2h1.1V0.1h-1.3v5.1l-3.9-5.1h-1.2v7.3h1.3V2.2z M120.5,7.5h1.3V1.3h2.3V0.1h-6v1.2h2.3V7.5z M131,6.3h-4.2v-2h3.7
	V3.2h-3.7V1.3h4.2V0.1h-5.4v7.3h5.5V6.3z M133.8,4.9h1.6l1.8,2.6h1.5l-2-2.8c1-0.3,1.7-1,1.7-2.2v0c0-0.6-0.2-1.2-0.6-1.6
	c-0.5-0.5-1.2-0.7-2.1-0.7h-3.3v7.3h1.3V4.9z M133.8,1.3h1.9c1,0,1.5,0.4,1.5,1.2v0c0,0.8-0.6,1.2-1.5,1.2v0h-1.9V1.3z M144.6,4.5
	h3.7V3.3h-3.7v-2h4.2V0.1h-5.5v7.3h1.3V4.5z M153.6,7.6c2.3,0,3.8-1.7,3.8-3.8v0c0-2.1-1.6-3.8-3.8-3.8s-3.8,1.7-3.8,3.8v0
	C149.8,5.9,151.3,7.6,153.6,7.6z M151.1,3.8c0-1.4,1-2.6,2.5-2.6s2.5,1.2,2.5,2.6v0h0c0,1.4-1,2.6-2.5,2.6S151.1,5.2,151.1,3.8
	L151.1,3.8z M160.3,4.9h1.6l1.8,2.6h1.5l-2-2.8c1-0.3,1.7-1,1.7-2.2v0c0-0.6-0.2-1.2-0.6-1.6c-0.5-0.5-1.2-0.7-2.1-0.7H159v7.3h1.3
	V4.9z M160.3,1.3h1.9c1,0,1.5,0.4,1.5,1.2v0c0,0.8-0.6,1.2-1.5,1.2v0h-1.9V1.3z M87.7,24.5c0,7.2,5.7,12.9,13.4,12.9
	c7.7,0,13.5-5.8,13.5-13v-0.1c0-7.2-5.7-12.9-13.4-12.9C93.5,11.4,87.7,17.2,87.7,24.5L87.7,24.5z M94.8,24.3c0-3.6,2.5-6.7,6.4-6.7
	s6.4,3.1,6.4,6.8v0.1c0,3.6-2.5,6.7-6.3,6.7C97.4,31.2,94.8,28,94.8,24.3L94.8,24.3z M125,23.2l10.7,13.7h6v-25h-6.9v13.2v0
	l-10.3-13.2h-6.5v25h6.9V23.2z M172.2,36.9l-10.6-25.2h-6.7h0l-10.6,25.2h7.2l1.8-4.5h9.7l1.8,4.5H172.2z M155.3,27l2.8-7.1l2.8,7.1
	H155.3z M193.7,30.8h-12.1V11.9h-6.9v25h19V30.8z M46,31H32.5v-4h12v-5.5h-12v-3.8h13.2v-5.9H25.7v25H46V31z M6.9,29.3H10l5,7.6h8
	l-6-8.7c3.1-1.3,5.1-3.9,5.1-7.7v0v-0.1c0-2.5-0.8-4.4-2.2-5.8c-1.7-1.7-4.3-2.7-8.1-2.7H0v25h6.9V29.3z M6.9,17.8h4.6
	c2.3,0,3.8,1,3.8,3v0.1v0c0,1.8-1.4,3-3.7,3H6.9V17.8z M48.5,24.5c0,7.6,5.8,12.9,13.6,12.9c4.6,0,8.2-1.7,10.9-3.9V22.3H61.5v5.1
	l0,0h4.9v3c-1,0.7-2.3,1-4,1c-4,0-6.8-2.9-6.8-7v-0.1c0-3.8,2.8-6.8,6.4-6.8c2.5,0,4.2,0.9,6,2.4l4.1-4.9c-2.6-2.3-5.8-3.6-10.1-3.6
	C54.2,11.4,48.5,17.1,48.5,24.5L48.5,24.5z M83.9,11.9H77v25v0h6.9V11.9z M163.1,66.7v-25h-7.3l-6,9.7h0l-6-9.7h-7.3v25h6.8V52.4
	l6.4,9.8h0.1l6.4-9.8v14.4H163.1z M20.3,60.8H6.9v-4h12v-5.5h-12v-3.8h13.2v-5.9H0v25h20.3V60.8z M191.2,67.2c5.5,0,8.7-2.4,11-5.6
	l-5.2-3.7v0c-1.5,1.8-3,3-5.6,3c-3.5,0-6-2.9-6-6.7v-0.1c0-3.6,2.5-6.6,6-6.6c2.4,0,4,1.2,5.5,2.9l5.2-4c-2.2-3-5.5-5.2-10.6-5.2
	c-7.6,0-13.1,5.7-13.1,13v0.1C178.4,61.7,184.1,67.2,191.2,67.2z M61.8,41.2c-7.7,0-13.5,5.8-13.5,13v0.1c0,7.2,5.7,12.9,13.4,12.9
	c7.7,0,13.5-5.8,13.5-13v-0.1C75.2,47,69.5,41.2,61.8,41.2z M68.1,54.3c0,3.6-2.5,6.7-6.3,6.7c-3.8,0-6.4-3.1-6.4-6.8v-0.1
	c0-3.6,2.5-6.7,6.4-6.7S68.1,50.6,68.1,54.3L68.1,54.3z M95.5,54.9L85.2,41.7h-6.5v25h6.9V53l10.7,13.7h6v-25h-6.9V54.9z
	 M174.6,41.7h-6.9v25h6.9V41.7z M46.8,61.6l-5.2-3.7c-1.5,1.8-3,3-5.6,3l0,0c-3.5,0-6-2.9-6-6.7v-0.1c0-3.6,2.5-6.6,6-6.6
	c2.4,0,4,1.2,5.5,2.9l5.2-4c-2.2-3-5.5-5.2-10.6-5.2c-7.6,0-13.1,5.7-13.1,13v0.1c0,7.5,5.8,12.9,12.9,12.9
	C41.3,67.2,44.4,64.8,46.8,61.6z M106,54.2L106,54.2c0,7.2,5.7,13,13.4,13c7.7,0,13.5-5.8,13.5-13v-0.1c0-7.2-5.7-12.9-13.4-12.9
	C111.8,41.2,106,47,106,54.2z M125.8,54.2L125.8,54.2c0,3.7-2.5,6.8-6.3,6.8c-3.8,0-6.4-3.1-6.4-6.8v-0.1c0-3.6,2.5-6.7,6.4-6.7
	S125.8,50.6,125.8,54.2z M226.1,71.5v13.2l-10.3-13.2h-6.5v25h6.9V82.8l10.7,13.7h6v-25H226.1z M192.4,71c-7.7,0-13.5,5.8-13.5,13
	v0.1c0,7.2,5.7,12.9,13.4,12.9c7.7,0,13.5-5.8,13.5-13v-0.1C205.8,76.8,200.1,71,192.4,71z M198.7,84.1c0,3.6-2.5,6.7-6.3,6.7
	c-3.8,0-6.4-3.1-6.4-6.8v-0.1c0-3.6,2.5-6.7,6.4-6.7S198.7,80.4,198.7,84.1L198.7,84.1z M28.2,84.7L18,71.5h-6.5v25h6.9V82.8
	l10.7,13.7h6v-25h-6.9V84.7z M168.2,96.5h6.9v-25h-6.9V96.5z M0,96.5h6.9v-25H0V96.5z M56.3,84.7L46,71.5h-6.5v25h6.9V82.8
	l10.7,13.7h6v-25h-6.9V84.7z M80.3,71c-7.7,0-13.5,5.8-13.5,13v0.1c0,7.2,5.7,12.9,13.4,12.9c7.7,0,13.5-5.8,13.5-13v-0.1
	C93.7,76.8,88,71,80.3,71z M86.6,84.1c0,3.6-2.5,6.7-6.3,6.7c-3.8,0-6.4-3.1-6.4-6.8v-0.1c0-3.6,2.5-6.7,6.4-6.7
	S86.6,80.4,86.6,84.1L86.6,84.1z M143.1,77.6h7.5v18.9h6.9V77.6h7.5v-6.1h-21.9V77.6z M112.8,71.5l-5.7,15.8l-5.7-15.8h-7.7
	l10.1,25.2h6.4l10.1-25.2H112.8z M127.9,71.3L127.9,71.3l-10.6,25.2h7.2l1.8-4.5h9.7l1.8,4.5h7.4l-10.6-25.2H127.9z M128.4,86.6
	l2.8-7.1l2.8,7.1H128.4z"/>
</svg>
